VertexLitGeneric
{
"$baseTexture" "models\weapons\w_models\csgo\w_shot_sawedoff\shot_sawedoff_01"
"$phongexponenttexture" "models\weapons\w_models\csgo\w_shot_sawedoff\shot_sawedoff_01_exponent"

	"$phong" "1"


	"$phongboost" "3"
	"$phongalbedoboost" "85"
	"$phongfresnelranges" "[.83 .83 1]"

	"$basemapalphaphongmask" "1"

	"$phongalbedotint" "1"

	"$phongdisablehalflambert" "1"

	"$envmap" "env_cubemap"
	"$envmapfresnel" "1"
	"$envmaptint" 		"[.1 .1 .1]"

}






