"VertexLitGeneric"
{
	"$baseTexture" "models\weapons\w_models\csgo\w_knife_butterfly\knife_butterfly"
	"$phongalbedotint" "1"
	"$phongdisablehalflambert" "1"
	"$phongexponenttexture" "models\weapons\w_models\csgo\w_knife_butterfly\knife_butterfly_exponent"
	"$phong" "1"
	"$phongboost" "8"

	"$phongfresnelranges" "[.8 0.5 1]"
	"$basemapalphaphongmask" "1"
	"envmap" "env_cubemap"
	"$envmapfresnel" "1"
	"$envmaptint" 		"[2 2 2]"
}