"VertexLitGeneric"
{
"$baseTexture" "models\weapons\v_models\csgo\smg_mp9\smg_mp9"

	"$phong" "1"
	"$phongboost" "3"
	"$phongalbedoboost" "40"
	"$phongfresnelranges" "[.83 .83 1]"
	"$phongexponenttexture" "models\weapons\v_models\csgo\smg_mp9\smg_mp9_exponent"

	"$basemapalphaphongmask" "1"

	"$envmap" "env_cubemap"
	"$envmapfresnel" "1"
	"$envmaptint" 		"[.11 .11 .11]"

	"$phongalbedotint" "1"

	"$phongdisablehalflambert" "1"
}





